…
julia> variables = [:tx, :rr]  # can be the variable or the canonical name
2-element Vector{Symbol}:
 :tx
 :rr

julia> variables_data = VariableData.(variables) # asks you if you want to automatically download the data if not already available.
2-element Vector{VariableData{Vector{UInt8}}}:
 VariableData(variable=ECAD.MaximumTemperature(), name=TX, zip="ECA_blend_tx.zip", entries=9183)
 VariableData(variable=ECAD.PrecipitationAmount(), name=RR, zip="ECA_blend_rr.zip", entries=17611)

julia> stations = intersect_stations(variables_data)
8087×6 DataFrame
  Row │ id     name                   country_code  latitude_arcsec  longitude_arcsec  height_meter
      │ Int64  String                 String3       Int64            Int64             Int64
──────┼─────────────────────────────────────────────────────────────────────────────────────────────
    1 │     1  VAEXJOE                SE                     204720             53280           166
    2 │     2  FALUN                  SE                     218220             56220           160
    3 │     3  STENSELE               SE                     234240             61799           325
    4 │     4  LINKOEPING             SE                     210240             55919            93
    5 │     5  LINKOEPING-MALMSLAETT  SE                     210240             55919            93
    6 │     6  KARLSTAD               SE                     213660             48480            46
    7 │     7  KARLSTAD-AIRPORT       SE                     214000             48015           107
    8 │     8  OESTERSUND             SE                     227459             52139           376
  ⋮   │   ⋮              ⋮                 ⋮               ⋮                ⋮               ⋮
 8081 │ 28431  HEIDARBAER             IS                     231120            -74761           125
 8082 │ 28432  IRAFOSS                IS                     230717            -75576            66
 8083 │ 28433  REYKIR I OLFUSI        IS                     230400            -74941            51
 8084 │ 28755  HESKESTAD              NO                     210503             22907           165
 8085 │ 28762  NYSET                  NO                     220185             27902           983
 8086 │ 28765  MATARO                 ES                     149563              8759            87
 8087 │ 28766  PERAFITA               ES                     151341              7632           774
                                                                                   8072 rows omitted

julia> stations = @rsubset(stations, :country_code == "FR")
43×6 DataFrame
 Row │ id     name                            country_code  latitude_arcsec  longitude_arcsec  height_meter
     │ Int64  String                          String3       Int64            Int64             Int64
─────┼──────────────────────────────────────────────────────────────────────────────────────────────────────
   1 │    31  MARSEILLE OBS. PALAIS-LONCHAMP  FR                     155898             19428            75
   2 │    32  BOURGES                         FR                     169413              8494           161
   3 │    33  TOULOUSE-BLAGNAC                FR                     157035              4964           151
   4 │    34  BORDEAUX-MERIGNAC               FR                     161390              2489            47
   5 │    36  PERPIGNAN                       FR                     153853             10342            42
   6 │    37  LYON - ST EXUPERY               FR                     164615             18280           235
   7 │    39  MARIGNANE                       FR                     156376             18777             9
   8 │   322  RENNES-ST JACQUES               FR                     173048              -958            36
  ⋮  │   ⋮                  ⋮                      ⋮               ⋮                ⋮               ⋮
  37 │ 11243  TROYES-BARBEREY                 FR                     173968             14471           112
  38 │ 11244  PTE DE CHASSIRON                FR                     165768             -2118            11
  39 │ 11245  PLOUMANAC'H                     FR                     175772             -9097            55
  40 │ 11246  NANCY-OCHEY                     FR                     174891             21454           336
  41 │ 11247  BELLE ILE - LE TALUT            FR                     170259            -10015            34
  42 │ 11248  CAP CEPET                       FR                     155085             21386           115
  43 │ 11249  ORLY                            FR                     175380              8583            89
                                                                                             28 rows omitted
…
julia> stations_data[5]
StationData:
├ ID: 36
├ Name: PERPIGNAN
├ Coordinates: lat=153853 arcsec, lon=10342 arcsec
├ Elevation: 42 m
├ Variables (2): ECAD.MaximumTemperature(), ECAD.PrecipitationAmount()
├ Observations: 37010 rows × 8 cols
├ Date range: 1924-11-01 -> 2026-02-28
└ Columns: station_id, date, tx, tx_quality, tx_element_id, rr, rr_quality, rr_element_id

julia> stations_data[5].observations
37010×8 DataFrame
   Row │ station_id  date        tx       tx_quality  tx_element_id  rr       rr_quality  rr_element_id
       │ Int64       Date        Int64?   String?     String7?       Int64?   String?     String7?
───────┼────────────────────────────────────────────────────────────────────────────────────────────────
     1 │         36  1924-11-01  missing  missing     TX6            missing  missing     RR9
     2 │         36  1924-11-02  missing  missing     TX6            missing  missing     RR9
     3 │         36  1924-11-03  missing  missing     TX6            missing  missing     RR9
     4 │         36  1924-11-04  missing  missing     TX6            missing  missing     RR9
     5 │         36  1924-11-05  missing  missing     TX6            missing  missing     RR9
     6 │         36  1924-11-06  missing  missing     TX6            missing  missing     RR9
     7 │         36  1924-11-07  missing  missing     TX6            missing  missing     RR9
     8 │         36  1924-11-08  missing  missing     TX6            missing  missing     RR9
   ⋮   │     ⋮           ⋮          ⋮         ⋮             ⋮           ⋮         ⋮             ⋮
 37004 │         36  2026-02-22      215  valid       TX6                  0  valid       RR9
 37005 │         36  2026-02-23      227  valid       TX6                  0  valid       RR9
 37006 │         36  2026-02-24      206  valid       TX6                  0  valid       RR9
 37007 │         36  2026-02-25      139  valid       TX6                  0  valid       RR9
 37008 │         36  2026-02-26      171  valid       TX6                  0  valid       RR9
 37009 │         36  2026-02-27      136  valid       TX6                  4  valid       RR9
 37010 │         36  2026-02-28      157  valid       TX6                  2  valid       RR9
                                                                                      36995 rows omitted
```
…
